{
    "supporters": 
    [
        {
            "email":"pelopsxalikias.com@gmail.com",
            "serialno":"8bRD0MPbFpQh5kimPbZo5EDuBCIxDy9XWp5lIghqaYno4CQfDAHf6e9BP1nJdRJMXyPz577dsod6gWgd8s8KFdtjtSifssssK06gNg9yavWJGopsSndPuJTemMdkY15lmaOHn50I"
        },
        {
            "email": "wmbruckner@gmail.com",
            "serialno": "5ciRitqP70YWitaAic14Hp2zxx1m08D3n6awJ8PsAoDQxXSXAww4LfT7tC0bA5Aj4QMhewAilyqHgqPc6NWv1ezCWvYd1FhvbWZjv636DSkz2DpfUYmmniRb1Z5ilR2oHRGLYa98"
        },
        {
            "email": "vinnom.2d@gmail.com",
            "serialno": "7IcwzfEPVCIAkGGcWbTECdaDURpB1xuHXc27WfxH3sOdxmXdKd8crKQU3WfpE8I8n0dn30kRdLqLHmsB03P1O6kCIaBqE2ITEH5xHb2ZPa3WnY61E9SwIbY8aP6IoSO0D6W5VOw7"
        },
        {
            "email": "tomencz@gmail.com",
            "serialno": "91GojxJgQA5Zs9Ogx7QPFnfZlDj3ef87495cOTw96Nih4ha0FJp3SxigVf8iF2IeyOdN2yDp4v0SpsyBjlaOvfEYtn3rfgIJcuLd3g9BMBVxl9PioCpRXF5efsDU3ucshAmrlKwy"
        },
        {
            "email": "",
            "serialno": "fhnGPDRsL3MUnejAa9UtmYSbZUSqutYfwk8GHEiVZ7OiD92sQZm7PZqfTkvQhKh07xDb6iqkqQyCDIg45DRapbzrIwayAeFzSRTaEPeMwM3awmUkGcgyQCSeKNd7LIjqE7SM7yLu"
        },
        {
            "email": "bivolliviu62@gmail.com",
            "serialno": "d36VRKLxN1wX73UE4fcxH90maBdu8CgNL18PmryFQhSkx2eX4Cz03QERAWOeP5Xziu539L2sxOnwLPqCqzWyF6NtC052SuDKTRdaiD3s08XeFbY9KKF5rzq1VnfREaay6LIVGG6Z"
        },
        {    
            "email": "",
            "serialno": "e9OeaJwyc0vPzurd2c9XqB5k6KZbrMzxq9avJUdYCsnayItZoFY0Wa8totYUypo50wjlafap6Rwo0BHbq0bEf1tJ7phowNxWBBJiPUbOWLsIhINsOufH88D6SLYIHpe5ValpJVAz"
        },
        {
            "email": "",
            "serialno": "5Exig5VbKEzrXmuS9ck1I8TSsXC0e4iyTKauDF7sviNRpQvuP2946rBIwYuZxJHqS45DeovTg83y4KAo7C7FNeFQOsWxrERLDyQlqf3Zy4VZkyFD9FDZgtNbXm2GDGwbELgrZI03"
        },
        {
            "email": "",
            "serialno": "1DaAc21nos33IeOgBayJMrmAUYxjBzIWhx7UaOC4bPDzECPLUlWdLDuJnCEnxEm6M9ou1RGrCbTgmMyPrxGsy9zUFwAjUmChrEWpYkeC2XYJ0MsjfFq2q8Keg4vh4DZzXVl6Utn7"
        },
        {
            "email": "",
            "serialno": "agMU4LhiPdf3p24NC1dmuHnOgHFV48qlUNcfWqHgY9SpdhnJ7Jo1kBZJ20yGTS4wQlZ99GshqrUCsdGMQgZF79EWOQblCuXzIo5DNz9XUSvis3GoW4yqfwo6ulkS39PnQ0M802HZ"
        },
        {
            "email": "",
            "serialno": "5cLPuYxNvpEL3NUsR7Vozhb9PDlLYbG0Cs9RQhP5MQ9cbc3vc3Y3EOtwCKpyfgERtUmy8gE4CAIDHAZXGnyf41AXsv98IMAq6dZPFQ1f8iZV8iSax3DkEJs3NJv6Pd7BXzkpHnXE"
        },
        {
            "email": "",
            "serialno": "2oU8ovXoV0y7nFOmnbZw93SOiBmj1gsSNW9T1aswlVDLM9V0b4g0ljFCZuB3APrBr8gW9KGJlv82DMqdY5pAJcTNHHymFmOeEzB2Dqdnjz1k8lQ29PIvfsIfKY19CgV4rdp3jHgW"
        },
        {
            "email": "",
            "serialno": "3TCswPigTYEkEM20T8ZqYZPPMm3WVsCqWN9vS1P9RdaaXCmZzz31gPUUw8eWAzdZKz8b7rdIowsbTVDjmaehKbd6lsxVOmy3kgtDbO0zwZdSEQet0ZOizIA2m4bzeQsiWmmedHL2"
        },
        {
            "email": "maksum1251@gmail.com",
            "serialno": "80B9xiONVPCkm2VwtcmgaHsbNyISBtZdAc0neoHAL95CMfdGnVp9Hg2wIF3hI42pUESGecbROqjndNI7fGklbagk9BDiZVLzbHHSEk9llmLe3NCXFEIUEUsbRxZ2AqEEUyYaF8V4"
        },
{ 
    "email":"eee8120@gmail.com",
    "serialno":"fT4GU9qxJcO90hjC0atVIwIBJYdDFFCzWg4g56BSb5aBwoWUMIE0oUrZSSHhndJi6LRC3XzB0hjGzk6GGhMIV70PTV0GaL9IJvkIHl9XHqVS0fPFKevDAuS2wDwqfouJ7uquZUDn"
},
{
    "email":"sapwalker8@gmail.com",
    "serialno":"5Uop15OVPI4xbgGnV8qxPtPz6arPKs3303dUc8VPzG1nlhzEhqi1BMbEIK8j2GtksQpp5fIWWye5vkO5vm0Do78NC7KXZJMO2ThCiQcECLz5jef7xFgn3qJ0x6LBDLkwoZLLvw2S"
},
{
    "email":"kkornel870323@gmail.com",
    "serialno":"8jRyZ6xi7w92cifNC8JWLKVfJc9MdqLIIFb1kt18TeXtBtKNNuffGBDpVBAlrUDxvQWf5uZgKpnsfrzSNQcRwctIUv7Mpc5KQKxG66bv883aghgU979q49e3ABErs2YMgOC1RXXr"
},
            {
                "email":"mariuszis413@gmail.com",
                "serialno":"c2LbfQJc0zXPbcYuZcVbdKZB2bhMzZzYh3f7S5myjsWeWVeBeuRf05aQykTqoTmFQwxe1KFzhvBXX4bs28InT5BMuVQsUJ2U73b7jA8ObwyujyFlZYOiIK76LOZE3Z957WsbT5hE"
            },
            {
                "email":"toyapshah@gmail.com",
                "serialno":""
            },
            {
"email":"zhyoffical@gmail.com",
"serialno":""
            },
            {
"email":"renatrenky@gmail.com",
"serialno":"drr7GuQKPlRiRjxnVedgSm24riWYexRQiH38ezfGWaiow3MWVyx2gAZZ1xjFiB0lgUGc6C8GJcF979QqTO1sKcECNC7GFCDyN7I8hYaB9DYZEMxRE7MKPMJ"
            },
{
"email": "pdbbasketball@gmail.com",
"serialno": "2zKYejwFDPDl3D3PX1JRbVorwTTeik94bw34qiRoIWfVMpEcjF2dfPR0tE3lr12kkp1teh23xx3t6wrbNSjqu5aZ50qzTuV7QNcnY44H6ltUtciemPNava8fDX2WFD412SCkHLXu"
        },
        {
"email": "pdbbasketball@gmail.com",
"serialno": "2aWO8StWXrb0Dxcoy7IjScHdcgEkdj1qYWeHcNvZVpRNkR6eTeIebjXWMrji05orr3LLftnYFMtGwCTS9vjQp3Q84kMnQRk6y2qQPx4xLjYtk7KrlSCurizffTZ1mI3jHuvrlU1t"
        },

         {
            "email":"thedead0666@pm.me",
            "":"c1ANVqwshhdFrJx9t5hQWiZrCNJMe1AOAv0RJdmvXQrsYMM31fu0ffZfOp0w78lK3any2C2KjnDpN5apdt2SQfKzzLeSi5neLlE8sKbhfzcRMCrBk6TcZOu4OK4ZfjygSGoGro0r"
        },
        {
"email":"cosminmariano@gmail.com",
"":"b3flLqbjCWPCcfF4ubFOpPBMtFv2irVeFQaVns7ggJgeFSYT7ou3wgHB4jF2gXgE3ooQ8ZLT920Bwf6LjK6qr4jqgXyTNivBXTmAs9bzYTrPvfb7i0xHwdRcmDzU0CcVDgXu8knL"
        },
{
"email":"brunobcl87@gmail.com",
"":"c1aBEK9Xsq8vDjNIEfNC9XDZeZlzsY2ZMU9P2aEpYh83lTQGZEl4vcfJ9Yktqqj7JLNJ1ERYZxFuGSyxDQxMz4F6k3JErORAGCu1yefnzm9UJ10sBqrvzLQ2YBrGI6IjOJKJF4GH"
},
            {
                "email":"kostasr500@gmail.com",
                "":""
            },
            {
                "email":"nimandniemals@gmail.com",
                "":""
            },
            {
                "email":"andrewaltamirano1029@gmail.com",
                "":"5kJ4m2tEQeCvYQZQlbPPSZ1HTtPgkPqNhubzZpoL4ZH3DuOC6zQbHFkko1KG7s6xz7LFbYpLcabm6RzMCwf5O4YWjkgAtBdJGWlbIS3KUQrYft9IjXQEjzP3uuR5FBbBqW0qsBsv"
            },
{"email":"juansousa725@gmail.com",
 "":"8rqfAwLre0h3gHBuj3NhJ0h9fxumtw3Onib6Qn6hxXWv8d0kLUv6Cu1FpsEXmi8rTMIQ8dDIY5sNuHxMwZEFrbokRtcUzxg4DTYs6C4pXUK1zGX6Okgs8kN6s0wqoi5TJZIOJJ5L"},
 {
        "email":"jazzengb@gmail.com",
            "":"1CNn2asxLjfnZwvGY3xlScEhWccXO8tx6814vcwurl7OwM8wLK5cJVrXWa1LyN1CBwXK9zpKmGkqJGVXQz2FX0yubfvTS2EWGQ9jy7cU5Npl6FZ07gazIXUaqNdpys5UMck7Hl8I"
            },
            {
                "email":"azhi.com",
                "serialno":""
            },
            {
"email":"ikhsan2x@gmail.com",
"":"boYy5vTi00BfqNhxhd4SCWDiJk7HzHh7yq0IA0a0QGnVQuuIBfdd3z6lLUr5VGcRJiQub8y7EP9MksQMhhxo2bIOFrsGWtZU431kbvelzPtWu3VBkay4j458APyK1fjFpJJvHtHo"
            },
            {
"email":"renatrenky@gmail.com",
"serialno":"drr7GuQKPlRiRjxnVedgSm24riWYexRQiH38ezfGWaiow3MWVyx2gAZZ1xjFiB0lgUGc6C8GJcF979QqTO1sKcECNC7GFCDyN7I8hYaB9DYZEMxRE7MKPMJ"
            },
            {
                "email":"nengragasakti@gmail.com",
                "":"ctwUvXWwbXpmgcaZudIU91BEuPu3L1EWzbdFxFeAbxnoG91aGXedsCPJyuLllxOXa8vPbE8kNYSEft1TRPJea9H7YwXTlU3XG9dF91eegOMfjVi1gc7VE152bSXaGouE3Set2VZl"
            },
{
                "email":"marinhoesdras@gmail.com",
                            "":"9VdHIgQ3wDLW1ESXU6i2yk5q5VG4QtD4JqdANosaBfjwIYYTkHW41qDDMlS8RxD6Dsrg0L0MmYumt4rqHTuAX5fC6RkiQr2tq874BbaoFJ2PlbIixsVQduW8Nytg6s4HtXEArPkS"
                                    },
            {
                "email":"yuuki34615@gmail.com",
                "":"aixSdxAjpb040qqGN4Ox4OJz0DCCia9iFEaYn2Eh6Jer5dww92IamuXE6pFtDB5xeS6h7d9m9fPo16Nwae6rR7LPgCILYDCTPlUypEaUKvC0DevfwfRmKeCaYJswf6NqBnKJ8DFm"
            },
            {
                "email":"caiolimajy@gmail.com",
                "":""
            },
            {
                "email":"aeron8827@gmail.com",
                "":""
            },
            {
"email":"ruskalenko2006@gmail.com",
"":"3C68QhyILp41oyPQnefFd1Rj8OrdWSf3Lc8qv4eyHRiJ9oyjx3ucVqb6uCGf3iqaVHiI4hgiTldnoEXunqRld9XhjYI83WyKG01NtDc3or6ziUbimRyfhq8dlOmC1Awzl50ESEGb"
            },
                                    {
                                        "email":"thegoldenminer3@gmail.com",
                                        "":"5QXLj5xZWSAmmlgsd9mMJBaFmkWixQAswd0Zs2LZo1ObBkdltKtbOD5dqm24izfp3a8V9F69xeOZ9cyOJ2ZUocXQSYg0vz7VvALpH4bBf4NCiZhEHlLlVSJ2YljIOpXhJjYo6xxr"
                                    },
{
    "email":"cjayacopra@gmail.com",
    "":"bAKAvo0o5VBNHGd60eRLD83wze8OL0qsiY3znjwtis2zMLWoV6Z13DkoiRPaf8h4REEI6DpC3ezCdSTnKXAQA64Jtakw7lwcSWAokd9Gz0EuUCQPGOpSriYd7qEukP0TXGjfhdFj"
},
{
"email":"mio.id94@gmail.com",
"":"8l5gDEiK8qNq9VYqV19mHDS3lO631q1qf8bEwJXLMMnJKfKX2AA7V6Pg8OhFBTqptdyd8kKtYgytrWv7TT58E9isoYuN0ve5jwvCkP8nr1seSqdZoJjxZZr8EFNCQWHKaJ1wLIZe"
},
        {
            "email":"timo.y.mueller@gmail.com",
            "":"aooLAY9ueL5hdb1Of6YiHLli4lvVRpdAng0BcKkjAEREw1CEDXbcrP0XtcUG6zTicsuG2tcuptwr7Ym2VkUo1avXcWPUYMFp2zEX6i6XaAtHsrTO5cBNelGdzvtuFJGAzOBcPJRn"
        },
{
    "email":"ndlam234@gmail.com",
    "":""
},
{
"email":"rainsuns@gmail.com",
"":"1MVuTapfgXAF5hJB2f7eaRbP0M5apLcFT26HcwsSnfyZnv0xSoCdRHghlXuPKcjAzrkF1H9Wu3XosANcgHI9VbmZAxE1ixr2CVtDIP7E6hNDpzs3iQwvq1Z9L3RxPdE2sWwIGHcx"
},
{
"email":"ariva@mail.de",
"":"4jNVVLRxRtDJUF58A1rrBxm4pIllg7jVrm1YzLOP5KnRGKQdxYS74XLZQbHR8D6byMIR9CvYHNM465NEipZCY4fFiqOPWpngYaVZbP0OPZI6ObxHiRiAoJ29F7i7Xp8obhlrlC0i"
},
{ 
    "email":"urushix99@gmail.com",
"":"cJijt1ryC0JaA8Fam8FHwzNySPycPUUmWzawNnxynq1jKL9IkFX76J1vnRagnyueU0627GA2E4bRQIGMOfbl4eLRxrECiOkd33Gyo65hRSgC5IIFyYieEWi1DWz3unTUjCWtpvEa"
},
{ 
    "email":"naufalzee25@gmail.com",
    "":""
},
{
    "email":"jazzengb@gmail.com",
    "":"1jivwPpbzs1JMG7MX3eldsGU8UngFgULuU12ti1WzqgnGHahsPmcgSlrCo0ii0J5zBJM9JgG6TZ6ruLlvU31E00AuLN4ow06rpK9cFcQeAcShzNSbLHNYlgaD0p00adSd8AHbHGC"
},
{
"email":"iagm12@gmail.com",
"":"8fiCseyDDPJDJXUxncqOhrAM7XixinrmJq1j7lZlW82GnXjxxqt7dyWbOknjIsxPTLRb6lir2D4ELzWAUVwtr35dsdsQNNuCK7bwFZ2CevTQMyF1prVSN2t8dqhrPIT1nakIqK3d"
},
{
            "email":"felipetv007@gmail.com",
            "":""
        },
        {
"email":"berkaysoydal16@gmail.com",
"":""
        },
        {
"email":"dragon4534300@gmail.com",
"":"8B4vqgzFTBcTFxY51dQE64hHSeq0svJOfmbnhP3gwcRD0m3jXx80f5sUqWB2G0mtOxrHfxG2vfI4WFx6GMQhE4S9rmOVdRCub1dkCz9JrqWj05AZBy6D5NL3PXmIeSP6unAug3EZ"
        },
                {
"email":"contato@brunodobner.com",
"":"cC8rKCGdYl1r5SvKpdEoDamVwxbl557UsC86q0E9cuqohfodETV2ggmMJgAIOB1mqMPrf6RfOuUkztJrzHue93G71hWrk5TpBnvnSjb3OGRB9lqObRjMsb3c1yM4EhqqeWfTNsv3"
        },
{
            "email":"hugomoco18951@gmail.com",
            "":"9waXH1GEbEa9B5N3QfaA1puaO4rs1mUn2t0r6BKoUvSb5Pd1jgh1XMZzo3Wx8KIJo0nWazf6tgYVwEHzREUdR0QnRmuViExfVU9rZs7jGOfX6Mc3DWNAKQh"
        },
        {
            "email":"vercetti441@outlook.com",
            "":""
        },
        {
            "email":"sensiz.fy@gmail.com",
            "":"2UL6CsEEjfCtG2Cu38CPJQSvguikFPexV1auA9NmeH89AaIcN2F48sYu1CB2jXXybepF7n05Ut3NDTVlbSFnb8mhcaUj2VLb7knhtT5ktWaeue7vbjp0g2Z7xSsJZpQLLP1fyxXR"
        },
        {
            "email":"wojownik208@gmail.com",
            "":"aWVxhql1T8pZ723fM5qbZuxXmYCU8qVyXo2A6JYLI3NEcWutmf7dowg74SclQyfs6ItK17VtVXevgQyQ7B21q0Wgf6KUx2fK7zllpY4Xmu1Z9xH7o8vCW5D73eSSgZEkCEP0Onft"
        },
        {
            "email":"christmas.4034@gmail.com",
            "":"aKXSZkYHV9sxBUeWBeM03lpre5EFDQUa4g5hTirBBeUZuGIgQwd4cXCG8fA0aC0W5tfy3MWQQJE01WCysCZGJ9zmf6jd9wNuGDJI3me1dfwDdPOPG9T4t7p3a0QXQQaQAbTVeRaQ"
        },
        {
            "email":"diegops3@gmail.com",
            "":"exPYaF7IdLuY3o8Yt1JszoFuLJnzFKTWEP5WMbfLr2N9nw21yiU6eA36crObjHN9aiY36uTQVkPLPwoUBBZ1N8671JaiktqiQFqrcG5uQEKnPKbtypLFv0C4zD7yC2LhFaxAfAhQ"
        },
        {
            "email":"rajaamirulisham@gmail.com",
            "":"b8Q1EGHPVwGJZb7RF2NocOJeNzbmKQ4Qaef3N7x6g7hAoWSIcZQegWWslHjs1hyxwpvz22OTBrecZRx7EvbBi4B6d9LNdxGLh3wAAgdnwB1JA16xbIBwNeH0q3PjGbkWeiOMNxAG"
        },
        {
            "email": "alessandroalberto82@gmail.com",
            "":"fO2T74uQQnI5jeKl3298YTfDQ5Q6b0ZGdWbZfPgqbtVsUubWnPn7qMnr2x6YdQAhTGJC8ZbMbwAMec2piods4dl5Qfd2ilytcHcSS6dMP65FgK45gEhtpKl4IqtrN83ONbF1LFCj"
        },
        {
"email":"sswolfgang.1944@gmail.com",
"":"808zjfa9RwPCsuGrx5r5vY6uDqGJGWxeM5dCKuwS4bCpDYkob8E941KcsyMjEsq4Hj6tdKtBBdem8btkYGB2W3wAb6NRClCTNcVCFuaWaKRWFOybEPZ9K9JbTQucFgAV4lkNuURv"
        },
        {
                        "email":"tw1xganyu@gmail.com",
                                    "":"cIJJ4DGGTJ8ZxYLrVaKxUJRC3yvKEplL3cascIISjHGfB9JGvRQ8LbaQbt2yEypkqXpSayOlBrc0vibb2zEBSbBNRjgazIx0nbXlqb8iCKON87ofd9kRW2IcmEUvRqJyCJn6TmrT"
                                            },
        {
            "email":"fauzan967@gmail.com",
            "":"1LCaCIE9kQzuCKdN52Wh2bSWESScrsRJ9qeA5UVDJOSYrrv3JfR3jGySIUGnXdL0dvJ47J3f06BiyU3Urfdbj5Rg3zrXndNRCwGRPHfFqE45LdRafPREaRK1mxFvuv9tZ6JC4Cgy"
        },
        {
            "email":"pocketneogames@gmail.com",
            "":"cKon8DOWGqsTVLGdZ6cIbqOYAftycia1vS4DFSpkEvnsRASkHVKdI978tNPCBhSwNLCgbTRGTCMH62WYGry6K0OQv2hPvu1rYpWq1u01nwcGClPKJgz3cMCeFandUMWTzOkpqRgz"
        },
        {
            "email":"kirbybrito@gmail.com",
            "":"6kmjCj03uIx53q75n65XR3aubqD8ZkAhaydVJ8wZntTdhUf2D2g44eS86dhaayoSDGHEaqx2nsYnmn1CeCVaq9WSL4BoTbYS8MOUzh1bMRbrqJWOx65xQHC7MLc1FKksFbVFjlnD"
        },
        {
            "email":"josegeovanigalvan@gmail.com",
            "":"4iArDtohtF5t62FQm55WMdlMHxaVMSISftaXaC1XbnHeHEPP3YveZEmIMvBaWG9AZ2hP9zbslM5zOicFCsoFb2MQl2RYhaWRUc0qgDeMHMXBtbJaT1bUcG7fgulBl0IfyIfiW5M4"
        },
        {
            "email":"cosminlucianblaj@gmail.com",
            "":"6Gw38cZXhV34Zi1oI66LBb7IVkolV8ORpGe2OYLnwAhzHwklLE703wV4PfH36In8nZYH4WJkD6BarZvdNvCfn6fFZ8KInTXKYCIKEJ4gsrmk6w0h8BKFKNn09AEpJx4BpbDzQ55l"
        },
        {
            "email":"dimasoroka824@gmail.com",
            "":"dlJsvpq8H3ZJlkiFN7aUQhJQnv4Kz8ojkk3xJRgctI3UwsN8M357PO9HWJzMGbYGpwEP0y6EpydnzQRu8ABMb8xPBSqE49w1foocydf9OalQ7EOyFf3OjCi4XaqBFjDIrEG7xyyQ"
        },
        {
            "email":"abhilashkannankara1@gmail.com",
            "":"cwDIOFrh1bQiRkX4KdXu55tz79xzZYZNa3enGiYi6QfWuliN6fgeGZ4qwQWCs9ePzF8x3Fr5Tqrj3IbJyIWsI9wVL7zFtvxtZzbN8G7rbRv817uExsYrjttaCHKvJQ6L7mNN1kVm"
        },
        {
            "email":"prodbyharro@gmail.com",
            "":"4zRnWynv9RQsN1roUeIYONFOv3W2Hg4vfw9YGL4aVELPL4V1daK2GGY3KyB3hSyybktD1cIK8aodJrtsv4EBP0p4DO4e4dJMOWXWXk2uGLHxAgpc4jUeqhC"
        },
        {
            "email":"wanzam22720@gmail.com",
            "":"8thCbnRFLAED6zByHcuVQuithJoZBI3mrYevAzOOifSqNUyF4gY87w8RNKHoSomHr5d6b2Yu3C5gekhZl9Cfx7iCq3uW7tqroGcC08dTMYnXbu0dzXPO6Re"
        },
        {
            "email":"leho6694@gmail.com",
            "":"cnqk0bEWOokZmLuAMfdo5myhuTUQuLktk0cPCYg2kzJ3aJrk3Hn7Gtk50l0TihKxe8D9dZlsIzxZJZ5nKPj2M3ynfj4Ium0wF1KUfabNFlnzqiUdtLnuCAxeNZUTrjxnHpkID53v"
        },
        {
            "email": "linn.frey@gmail.com",
            "": "3tb3zxALCG1CoPzrk6CaoO2uKtpnZVWHm94tEGUpsIAPrmf87emaun2M7gqItaim1Rvw96FuXl2ANF24s3GF53efMglFksplvQgzKF6ZCmwBi9qHYN0m9l1"
        },
        {
            "email":"zsnightsorrow@gmail.com",
            "":"ao0kJbdAZhsQU32OZ1zEcnalUhZlkuGktk2YjkmAyrwSrUMAgo3adpZpu5d94PcWFiJU4Dmlld4T5OjrleG6s8ZmuCN6WOQWYitEYbaOZ6P69Kqc6qw8mLHbVHWrhkVff4IJksXo"
        },
        {
            "email":"sgdinhtranduy@gmail.com",
            "":"aT4uxieHPUWnDVtGp5qc2Cwzj7ZhMLHTgQ4EuhoFASVfTArvclH5zzkYq2bJMGkVwUGLfe1P4irVka6a1qxpE6cnyb6nP46gGjmH3ofoiawAlAf5qDF9rmK3MUm3kIldhd46JyRi"
        },
        {
            "email":"alvarezjohnford@gmail.com",
            "":"6aq8nVEuIl03rrT3h7CAwXut5VEvxPdbgmd6CfqKHwvr7svZbwI9mGqPpBi1muuKNs7da0q8bTfMFjHaYAhuY0ZC4zUv6ATKZTGZO23DQDGO3J7Qg46xKMW5qoYUWPqZuz4zCipR"
        },
        {
            "email":"crisbiejansky@gmail.com",
            "":"7wYt7GHf52ckKBl0Cat9BLFlt3miZD1Invcsjy8b8HvJgA2kN0j0GfmsZ2tk0lcRfCLaewtzfDmNkdBhsjJA51YUMhQeeoNxn0GeqA4eCBIgW6g3IMmtEgG1zelk1ZKXvtjKFQsR"
        },
        {
            "email":"musaradeva@gmail.com",
            "":"9K5Ge10ezWyL8UgNn56I3164R4BtKSERZ6bxmytr6l1lhQKqecq3V7T3HwkcFZWJlLtb1wgOLacVveub10OK36diCGE9KEMXFkxFbl5cmitnKBoeq7Y3oiLe3bf4uc364nLXwqsF"
        },        
        {
            "email":"chavez98victor@gmail.com",
            "":"4gwtbndVrMY5Tr14rfJ0JBn2h9H803cKtH0meC5e11258S8NiPY6yYZpYZbsBwjZ1F2cbG3QVX7xMYOuIHEWfekYgk6SDSOBFAcHAq0dr8ysbqa17POuz6c"
        },
        {
            "email":"ichronocross@gmail.com","":"1D8LZ1IvbRdGbblp4e43uuZCdiZCFg6StB0NrQqrGtGHyN3DClPeKWZAP7YFETwFD34P15fd6XcX9jfW4RIRy7j91c6JKEAbd0TIGw7MQkwLmHVDAQHkkzafukXbSCWeeVKMqgO0"
        },
        {
            "email": "dileivi12@gmail.com",
            "": "6wscgeJvG95lUlyU20CCrXlPPKI57AsP1a0RcCvpD8QfhriC78U8BEmRU4tTARdmilmacBj1iqQP6GFbJvF0t0mctvufOZM9R24BNa1SvkrFg9CsUF5MKBY0vRtXofDvYRH2ZBxq"
        },
        {
            "email":"kenshirofumanarvasa@gmail.com",
            "":"7rWUtRNzwRDIzxrR932x7smouAaB2ehoom5BrBB5uk9DNGKp3Bb7dEthOj7yl8MDizfw1rCBCnH61NR32GAQM8otc1ElWdsglMafLb9mENdMCer1T9EamHU7zi5wdzLwTkJoOh1U"
        },
        {
            "email":"rainforbubbly@gmail.com",
            "":"acFixnh9SfsTj8olV6GlTkD36EUifV5W0A83JIWkUUhqnmTWhqKaYtqPN1M35LFA5Pi7bFe9HhyAjId0Cmgys7iX80fep9Gwns1wlqc971Amn2FzMqvpsyD2QnL9NBGZt9ft2Ukq"
        },
        {
            "email":"takateshy@gmail.com",
            "":"1iX4XgXrNd1Kq1iZq1IGbfzNiRDJjtKLRKfh3AivooTAB7flYSBdafDlIC8OpvT7LERT49F4AXssDInk5J2gu6u4AvOfOolQeg251x07Pr9HjSbNaiAWywN4lXcQ9A7gGGvzMTGF"
        },
        {
            "email":"tasooom28@gmail.com",
            "": "2ZdPpMwL1XUAD0uzf79BXwz0NNwqd4w5Xf7IFACr2UzrYacuF4scZDchgPBnOQG6Ctfe4ltniweCo0E3CeYe9fDkuAlWoInupetGoL0eI9YBluBQ3guFuLqd6a846hk68hxokP81"
        },
        {
            "email": "elashxander@gmail.com",
            "": "ebU6VVhfTFXTfc96DcxP3xfuxta3Ss8aNB31GkESZJjxI0vS0RM37GBf6vhjMyjuWrWg8LgxBZrWqp9UuXudbbVPFESvW8Mw652YWv2PxQzqp0TzKAF17UtacitzV5HrzbGE7QBT"
        },
        {
           "email":"davidtay.snow88@gmail.com",
           "":""
        },
        {
            "email":"maheshdea@gmail.com",
            "": "7Ztce6xTb9GqUlIgE6qUGlTsjuBjhJnfc599p7HN9RW8CFgdaqv2JM7W7WciAgatneFm8UUr2hSgIDOCGWFSi6KGJ07oLDiVsas2yg3trYmDZzKyLVh0l3l8zsjHt4cq5Zve7esg"
        },
       {
            "email":"komoroczkik@gmail.com",
            "":"ejQVKTYZUFQ2sM8fk31egrxdgaP9qCIsrH6Mb6yNXjncLpScfSWcOuPWJqQ86g2779ac7DfThmJLVVwDlB1H39hojpvCCl387Fde7XeHNvlCW7jZ5Si1ba1f5Sc0JvRsNh4XWOvC"
       },
        {
           "email":"navinshanmugam23@protonmail.com",
           "":"8OjQohMHUhFxOQBTMeQks0dLUKXScSi6MvdqbkG4pgnuHDGZJgHarkeVwtQY5qfo8n0b5ZpipOp3XPeqZdsJg43TrGPKMTqAHmfFQ61ooWUk8f0TCgVQgg481Y4tLyzGwoocN8lz"
       },
        {
            "email":"crisbiejansky@gmail.com",
            "":"7qomqozvwNwJmwyjxaaAT7KYtKK3f8nuiPcag9w8yhtgysV8Tyj0E2SS6mgaWmgv4XJjelKDndar8JnVbq3Lw1o4Rf3zt9hPYJbJ2V42UA2DgLI0Q7HKLou1oSJg8sjmQxZtP7nk"
        },
        {
            "email":"nicholaus_bonaredra@hotmail.com",
            "":"58bvrmPBRKsfHliy0exV0qAqnqkzsAagljeOOzGGK93kBTRYJnB1ASM6wCjcgfVDW6dO9d1PugxgssL1tDKcfefi0VCqVXEzZlUELpdmKoHYMtHXjjI8EpFes1zNwcYHrim72eMg"
        },
        {
            "email":"javiervitalioperalta@gmail.com",
            "":"7YGH1kFGiW5InycuC8djnbBKpFxCAc9KoFb5gXcnNOBomLTINcFaemTpzI0kt3j1a3Ib1q9qi5kUiKHYVeRsf8DflZJ1Jf8j3OcHvReNnYQGYpdanRCRMk3fmdSHG7YKmtPsAhEv"
        },
        {
            "email":"danielsondepontes@gmail.com",
            "":"9v3Zd6wAye32KtkrYfhH8CIWaU9QjeTZaC3vZhr56sjhMddFoz08ZmUapDLKDojrq6hVbh1CmcCXdY65liFGnbXt3SarpQrFF7ctV2dpOqHGCCHcmQbJ5Xw3QnRgdsR8eAXBWRON"
        },
        {
            "email":"tbrayanalonso@gmail.com",
            "":"1wNafTtRUoSDpezOJ8Wfwz9tcSA6ay0Ti42s5wBLRBelnX2BHoP3ZXsmNokTGraLU0rD5L4yV6LbhRVZXjWbE1S0QxP1dkOdOM0kmK4EKNDXN8QDfZ3jYsu3TlDBsJ8ivnOUOZDr"
        },
        {
            "email": "linkmarkinhoz@gmail.com",
            "": "bFy4ULPMipMyaRBO15MzjYhay7WpMh7MXGaR6XczBOZB6MWs2A82zbTxB7bf5FlRqYvt1m3LljxBcEF40tupj0CCMxFYoUOW1pfPgQcSfmEDj1ZylglMluga0lbKvuHd3GapWkod"
        },
        {
            "email":"rafff.dc13@gmail.com",
            "":"6j4XXZQYg9E2Bx72reDGBi6Wc9vAkk1J9f2UEqsZYfLX2n0RSCqeMKAULEyGACLzvdc10ejigzRL2XbaCSzCD6AjUwbfOzOWvwPEmWaQuLhRW3XRsKe6NO47TVnNgwQTNQvL3mub"
        },
        {
            "email":"crazy46official@gmail.com",
            "":"fJIOtXLV9Z464CWmD6vyG4jFVQPGnMC4SVaN3hyHpIXNp5duXk88FEqU6kUQ329FRz1BdIU54MZDFjg34A1KI25ObfcJFgdz6VzW4x6aDfwNGFdMaIaHdOnfx82JxqONpROEByW1"
        },
        {
            "email":"rainfreecs@gmail.com",
            "":"fAaYB9x51DE4pUh50fOzCTrdaT1rDNxPMC5yYLiivPkDqmtW0K127DQUoGDsdjz84C0maHu8zlT6UF6ySCJzp6AABo5YJDuq5zqia94Voeg6x3ncoN2Mc5b4zVtXVeuzZ4rnjiEf"
        },
        {
            "email":"v3ndonz@gmail.com",
            "":"4Dafx0uzSedpqWtT35ZvXuxTpE946fnBzMakA4AMeYiUmaCOGcz7D1tG2oUmb3sIHyn8aDCOY7t2zMP2woWrWdLTcHMFBgj8MirOr5cDGnTipS2IUuhbVlk4DIiNm2MFIzliOiLd"
        },
        {
            "email":"deidad214@gmail.com",
            "":"9xyjNG8MHKxywUL0L6yCW3KEaUckyos6N68bmpjwouT1vXU1miaaNLinOA0e0NY6SE5CbQ177v9zas2zPgUXU35uKwlv6566Kd9gfW5TIZm8qMDZ34vXaVGcQB29767PvaR4SOmJ"
        },
        {
            "email":"alejandro.h.p0@gmail.com",
            "":"bEOLCzRctYi1PbkQe6dU9Ctjz0ZgtNuDV22oIYer7zOU7rrNUEQaBSQchoLX9gwXxpLy15aTCRoS0OG3xo5am660qOdJUbGSbslY9d6Jz4poQTQBSySj1MIfC0dCV6O9ZcIC0qSj"
        },
        {
            "email":"ragderkda@gmail.com",
            "":"dZNjsIGAHbd9zWCsrclqUbo7IdfOfvBf7E4PLPUG8zhYWEdyZYh4JcS9mNrE8Pl1geM48fBBkV6KOMkwWAxVx7rVeVCA2FAV8U2OjQb0jc0gw6vqtBKoK0B9FYzTf3UK6d56jFta"
        },
        {
            "email":"tw1xganyu@gmail.com",
            "":"cIJJ4DGGTJ8ZxYLrVaKxUJRC3yvKEplL3cascIISjHGfB9JGvRQ8LbaQbt2yEypkqXpSayOlBrc0vibb2zEBSbBNRjgazIx0nbXlqb8iCKON87ofd9kRW2IcmEUvRqJyCJn6TmrT"
        },
        {
            "email":"gpalella88@gmail.com",
            "serialno":"5TlLBZAJcPRUZ61si0dpmhkUdG6xVceKudeBRZeMiYEpWbQI3aTfRUn44KF7hcSyWqyCcvAYSi176gRCTmqhg7F029esRqIof1MvFz7l6jrunAZNGwyG1Nv1ougfgreoPdxgq4Qz"
        },
        {
            "email":"geoortiz89@gmail.com",
            "":"7WX5ySwribskLQFF2dYlBWFh4CKcWsscekdFS3lx1DM9Iv0ygCm7GiykWQA4hy9ozqAc4AzGk4ue2Bt76giGp33lAU7uqeuWiNrupWda0BeKpOq48sfmyHM0cfdkCB1GLjbyiAZu"
        },
        {
            "email":"lkojerl59@gmail.com",
            "":"16gT7J9B7ixTupu5g3Z0w7qrZfNVDc1XeE7LxoX5p8dab3Pmh78eGFi8VTDUzy6yYtbjdX0HmzNYKNSrS9Db56ZRGiKu0xwI8ut0lqfHPqNW3yOZndWmlgVazVNTNIPh8dzNsJab"
        },
        { 
            "email":"dan.aps89@gmail.com",
            "":"doYxRc0WtOKDjTl0N3bzGvCsKKbeaxmub9d2ilMVmUjAIvNeHvBdbAtIjqWwhgHvAiAw8EUOfQdh7GnXs364B6Rl8AXenA6rXW7FXt8NFLmG3hRbZY82HLz5uQCCsU3rlEDymOhQ"                              
        },
        {
            "email":"darkanrc@gmail.com",
            "":"1ohDqabo1QPQzJscc40YnJfhCMiKAx0mCVaBRfIbMwOETMhMBju6SHRxnMBu9VZ3D8Lq0bYT25ZJSiT3FiNAN406L7J7RlKEJZIoyp8GF03cAVPZTf8C4QN6GrBVskWPex1cwzaF"
        },
        {
            "email":"gabiitha.ok@gmail.com",
            "":"aka0sW6SyYGc0e65CasS8R82Q4YcRbR8tH5RF1J28c7S4tQEUVTc6vvfGqe4Cz953ndweHVBCKe9KkjpJQI3R57gpVIMqep6dtEkWNfCzdCcMJ3tRz32AK72AqoSMVcYW3FHe6TP"
        },
        {   
            "email":"kosmas_euosmos@hotmail.com",
            "":"3FXVBg9lR7P0CDHtA1GXTKlgh2dF0sAS0maZfptE4Pdv3CUqNzt9AEkHbmZjW3dHwsEYeoUMmpLdbilOR1tWs4z3XQ45mMwJueR4Od0sJNLEdBTp3AUd0OKbLK1gQqiGNfjiuOVi"
        },
        {
            "email":"fubfreak.personal@gmail.com",
            "":"cATCKMqqX4hFaXlMf9pOJYpxiA5K774honffOmMOiSPtyghakwi6lSNaZOoGOxElQDI4dFy3wzjeXy0fEuyH68R1msBS59qRAjGyBfaHaztevV1g0YsyKHO6KsPM9T9rOJmZSFZ6"
        },
        {
            "email":"r2d2star88@gmail.com",
            "":"apkWLhtLSSJO0HuXU4oZg5Vp98h4iAOBk575J4VqWeDlIugNIh3fG2nWPclrexgvWFfo1LXGCkvw3pGWGEGlzdwdKjDoUndpTcSqq0d52oo9TwciF0DYuno678AgtA42hPOFJttV"
        },
        {
            "email":"alexisovaldezo@gmail.com",
            "":"5XJdBWFm8wiImGwdg7Rp48zZFENlreLLwg7zAO7yHLzNe9BqZhk42vmOyAWUfFFXjLlF1FuYXyxuPoydlu2Fe3yvbXX0ZYzBie4X9EdyVYA7ipDMeolJCdEezvEnmyPfUAsop1WX"
        },
        {
            "email":"josesito20011@gmail.com",
            "":"1F7iV2sAqk5GJCrCndIkSjE2jvUMjR1L1ncPJO3twBAAIBqLTtHcFAhcrhalV1mQZshceLQqampqEhlIn1pI29NO3PkFekAj67uJqseRJ4tUl0pRqiGRc3wfjwv43iGJqEqHHNXb"
        },
        {
            "email":"vitalijb16@gmail.com",
            "":"b4zveA7dU6yCKxQhn8M0rDhqWJI3JwTOdicQ7XZqJZ9fESWEAlFefljmmu8qDXDOIMRKaCDNWSxdXsR1rGpGe7nXv9zO3dvxTww2yG1wQVqcfBA7yy93f6L1zNWoJaroiMtl6slW"
        },
                {
            "email":"gpalella88@gmail.com",
            "":"5TlLBZAJcPRUZ61si0dpmhkUdG6xVceKudeBRZeMiYEpWbQI3aTfRUn44KF7hcSyWqyCcvAYSi176gRCTmqhg7F029esRqIof1MvFz7l6jrunAZNGwyG1Nv1ougfgreoPdxgq4Qz"
        },
        {
            "email":"rafff.dc13@gmail.com",
            "":"6j4XXZQYg9E2Bx72reDGBi6Wc9vAkk1J9f2UEqsZYfLX2n0RSCqeMKAULEyGACLzvdc10ejigzRL2XbaCSzCD6AjUwbfOzOWvwPEmWaQuLhRW3XRsKe6NO47TVnNgwQTNQvL3mub"
        },
        { 
            "email":"leleuuu1710@gmail.com",
             "":"4mLIULcE0q2iOXooL8aE4SYnKj4I86kbNP2Io41v3wMKsZ4JrOE8c3RMM3gNsOZmoZ0N4XQBBXJDsT0AcsPjV5gSl8bsIE8T7Xm1Z4eZ8eS4sC2yxGiq3980GVwG0I7svk4NNxRn"                            
        },
        {
            "email":"tasooom28@gmail.com",
            "": "2ZdPpMwL1XUAD0uzf79BXwz0NNwqd4w5Xf7IFACr2UzrYacuF4scZDchgPBnOQG6Ctfe4ltniweCo0E3CeYe9fDkuAlWoInupetGoL0eI9YBluBQ3guFuLqd6a846hk68hxokP81"
        },
               {
            "email":"zavrihko2006@gmail.com",
            "":"15iYn6z7nE8BaXTqgfzCAYeaAqO2vcJjRJdZn7UsU19LR6fGQwD08OypAuHiVJ1FNiRT2XG8o81SLa3B0Izgf5UHpYL9NJBwSdQZGk2l2up1GY35IDGA91EeCMwN1GLtJlJTXI47"
       }
    ]
}
